﻿Field=#~Integer~#~50|Field=Designator~String~Designator~100|Field=Comment~String~Comment~100|Field=Description~String~Description~100|Field=Footprint~String~Footprint~100|Field=LibRef~String~LibRef~100|Field=Quantity~Integer~Quantity~100|Field=Manufacturer 1~String~Manufacturer 1~100|Field=Manufacturer Part Number 1~String~Manufacturer Part Number 1~100|Field=Supplier 1~String~Supplier 1~100|Field=Supplier Part Number 1~String~Supplier Part Number 1~100|ReportField=Currency~<none>|ReportField=ProductionQuantity~1|ReportField=ProjectFileName~FS-XT BMU.PrjPCB|ReportField=ProjectFullPath~G:\ION Energy\Design files\FS-XT_BMU\DESIGN FILES\FS-XT BMU (09-02-2019 23-51-41)\FS-XT BMU.PrjPCB|ReportField=Title~Bill of Materials For Variant [18S version] of Project [FS-XT BMU.PrjPCB] (No PCB Document Selected)|ReportField=ReportTime~12:32:44 PM|ReportField=ReportDate~11-Feb-19|ReportField=ReportDateTime~11-Feb-19 12:32:44 PM|ReportField=OutputName~Bill of Materials|ReportField=OutputType~BOM_PartType|ReportField=GeneratorName~BOM|ReportField=GeneratorDescription~Bill of Materials|ReportField=VariantName~18S version|ReportField=TotalQuantity~234|ReportField=TotalActualPrice~0|ReportField=TotalTargetPrice~0|ReportField=VersionControl_RevNumber~|ReportField=VersionControl_ProjFolderRevNumber~|ReportField=Address1~|ReportField=Address2~|ReportField=Address3~|ReportField=Address4~|ReportField=Application_BuildNumber~|ReportField=ApprovedBy~|ReportField=Author~|ReportField=CheckedBy~|ReportField=CompanyName~|ReportField=CurrentDate~11-Feb-19|ReportField=CurrentTime~12:27:37 PM|ReportField=Date~|ReportField=DocumentFullPathAndName~G:\ION Energy\Design files\FS-XT_BMU\DESIGN FILES\FS-XT BMU (09-02-2019 23-51-41)\main.SchDoc|ReportField=DocumentName~main.SchDoc|ReportField=DocumentNumber~|ReportField=DrawnBy~|ReportField=Engineer~|ReportField=ImagePath~|ReportField=ModifiedDate~07-Feb-19|ReportField=Organization~|ReportField=ProjectName~FS-XT BMU.PrjPCB|ReportField=Revision~|ReportField=Rule~|ReportField=SheetNumber~|ReportField=SheetTotal~|ReportField=Time~|ReportField=Title~|ReportField=DataSourceFileName~FS-XT BMU.PrjPCB|ReportField=DataSourceFullPath~G:\ION Energy\Design files\FS-XT_BMU\DESIGN FILES\FS-XT BMU (09-02-2019 23-51-41)\FS-XT BMU.PrjPCB|ReportField=PCBConfigurationName~Sources|ReportField=Item~|ReportField=ItemRevision~|ReportField=ItemAndRevision~|ReportField=ItemRevisionBase~|ReportField=ItemRevisionLevel1~|ReportField=ItemRevisionLevel2~|ReportField=ItemRevisionLevel1AndBase~|ReportField=ItemRevisionLevel2AndLevel1~
1|C1, C4, C5, C6, C10, C12, C13, C14, C16, C19, C23, C28, C30, C31, C32, C33, C34, C35, C36|0.01UF 50V X7R 0603|Cap Ceramic 0.01uF 50V X7R 10% SMD 0603 125C Paper T/R|CAP-0603-STD|CL10B103KB8NNNC|19|{URL}https:%2F%2Foctopart-clicks.com%2Fclick%2Faltium%3Fmanufacturer%3DSamsung%26mpn%3DCL10B103KB8NNNC%26seller%3DDigi-Key%26sku%3D1276-1009-1-ND%26country%3DUS%26channel%3DBOM%2520Report%26{URL.TEXT}Samsung{URL.TIP}Component|{URL}https:%2F%2Foctopart-clicks.com%2Fclick%2Faltium%3Fmanufacturer%3DSamsung%26mpn%3DCL10B103KB8NNNC%26seller%3DDigi-Key%26sku%3D1276-1009-1-ND%26country%3DUS%26channel%3DBOM%2520Report%26ref%3Dman%26{URL.TEXT}CL10B103KB8NNNC{URL.TIP}Manufacturer|Digi-Key|{URL}https:%2F%2Foctopart-clicks.com%2Fclick%2Faltium%3Fmanufacturer%3DSamsung%26mpn%3DCL10B103KB8NNNC%26seller%3DDigi-Key%26sku%3D1276-1009-1-ND%26country%3DUS%26channel%3DBOM%2520Report%26ref%3Dsupplier%26{URL.TEXT}1276-1009-1-ND{URL.TIP}Supplier
2|C2, C3, C9, C11|27PF 50V X7R 0603|CAP CER 27PF 50V X7R 0603|CAP-0603-STD|06035C270JAT2A|4|{URL}https:%2F%2Foctopart-clicks.com%2Fclick%2Faltium%3Fmanufacturer%3DKyocera%2520AVX%26mpn%3D06035C270JAT2A%26seller%3DDigi-Key%26sku%3D478-11825-6-ND%26country%3DUS%26channel%3DBOM%2520Report%26{URL.TEXT}Kyocera%20AVX{URL.TIP}Component|{URL}https:%2F%2Foctopart-clicks.com%2Fclick%2Faltium%3Fmanufacturer%3DKyocera%2520AVX%26mpn%3D06035C270JAT2A%26seller%3DDigi-Key%26sku%3D478-11825-6-ND%26country%3DUS%26channel%3DBOM%2520Report%26ref%3Dman%26{URL.TEXT}06035C270JAT2A{URL.TIP}Manufacturer|Digi-Key|{URL}https:%2F%2Foctopart-clicks.com%2Fclick%2Faltium%3Fmanufacturer%3DKyocera%2520AVX%26mpn%3D06035C270JAT2A%26seller%3DDigi-Key%26sku%3D478-11825-6-ND%26country%3DUS%26channel%3DBOM%2520Report%26ref%3Dsupplier%26{URL.TEXT}478-11825-6-ND{URL.TIP}Supplier
3|C7, C8, C29|1UF 25V X7R 0603|Cap Ceramic 1uF 25V X7R 10% SMD 0603 125C T/R|CAP-0603-STD|CL10B105KA8NNNC|3|{URL}https:%2F%2Foctopart-clicks.com%2Fclick%2Faltium%3Fmanufacturer%3DSamsung%26mpn%3DCL10B105KA8NNNC%26seller%3DDigi-Key%26sku%3D1276-1184-6-ND%26country%3DUS%26channel%3DBOM%2520Report%26{URL.TEXT}Samsung{URL.TIP}Component|{URL}https:%2F%2Foctopart-clicks.com%2Fclick%2Faltium%3Fmanufacturer%3DSamsung%26mpn%3DCL10B105KA8NNNC%26seller%3DDigi-Key%26sku%3D1276-1184-6-ND%26country%3DUS%26channel%3DBOM%2520Report%26ref%3Dman%26{URL.TEXT}CL10B105KA8NNNC{URL.TIP}Manufacturer|Digi-Key|{URL}https:%2F%2Foctopart-clicks.com%2Fclick%2Faltium%3Fmanufacturer%3DSamsung%26mpn%3DCL10B105KA8NNNC%26seller%3DDigi-Key%26sku%3D1276-1184-6-ND%26country%3DUS%26channel%3DBOM%2520Report%26ref%3Dsupplier%26{URL.TEXT}1276-1184-6-ND{URL.TIP}Supplier
4|C15, C17, C18, C21, C22, C26, C27|0.1UF 50V X7R 0603|0.1UF 50V X7R 0603|CAP-0603-STD|06035C104K4Z4A|7|{URL}https:%2F%2Foctopart-clicks.com%2Fclick%2Faltium%3Fmanufacturer%3DKyocera%2520AVX%26mpn%3D06035C104K4Z4A%26seller%3DDigi-Key%26sku%3D478-10679-6-ND%26country%3DUS%26channel%3DBOM%2520Report%26{URL.TEXT}Kyocera%20AVX{URL.TIP}Component|{URL}https:%2F%2Foctopart-clicks.com%2Fclick%2Faltium%3Fmanufacturer%3DKyocera%2520AVX%26mpn%3D06035C104K4Z4A%26seller%3DDigi-Key%26sku%3D478-10679-6-ND%26country%3DUS%26channel%3DBOM%2520Report%26ref%3Dman%26{URL.TEXT}06035C104K4Z4A{URL.TIP}Manufacturer|Digi-Key|{URL}https:%2F%2Foctopart-clicks.com%2Fclick%2Faltium%3Fmanufacturer%3DKyocera%2520AVX%26mpn%3D06035C104K4Z4A%26seller%3DDigi-Key%26sku%3D478-10679-6-ND%26country%3DUS%26channel%3DBOM%2520Report%26ref%3Dsupplier%26{URL.TEXT}478-10679-6-ND{URL.TIP}Supplier
5|C37, C42, C43|1UF 50V X7R|1µF ±10% 50V X7R Ceramic Capacitor -55°C ~ 125°C Surface Mount, MLCC 0805 (2012 Metric) 0.079" L x 0.049" W (2.00mm x 1.25mm)|CAP-0805-STD|CL21B105KBFNFNE|3|{URL}https:%2F%2Foctopart-clicks.com%2Fclick%2Faltium%3Fmanufacturer%3DSamsung%26mpn%3DCL21B105KBFNFNE%26seller%3DDigi-Key%26sku%3D1276-2928-1-ND%26country%3DUS%26channel%3DBOM%2520Report%26{URL.TEXT}Samsung{URL.TIP}Component|{URL}https:%2F%2Foctopart-clicks.com%2Fclick%2Faltium%3Fmanufacturer%3DSamsung%26mpn%3DCL21B105KBFNFNE%26seller%3DDigi-Key%26sku%3D1276-2928-1-ND%26country%3DUS%26channel%3DBOM%2520Report%26ref%3Dman%26{URL.TEXT}CL21B105KBFNFNE{URL.TIP}Manufacturer|Digi-Key|{URL}https:%2F%2Foctopart-clicks.com%2Fclick%2Faltium%3Fmanufacturer%3DSamsung%26mpn%3DCL21B105KBFNFNE%26seller%3DDigi-Key%26sku%3D1276-2928-1-ND%26country%3DUS%26channel%3DBOM%2520Report%26ref%3Dsupplier%26{URL.TEXT}1276-2928-1-ND{URL.TIP}Supplier
6|C38, C44, C45|0.22UF 50V X7R|0.22µF 50V Ceramic Capacitor X7R 0805 (2012 Metric) 0.079" L x 0.049" W (2.00mm x 1.25mm)|CAP-0805-STD|CC0805JKX7R9BB224|3|{URL}https:%2F%2Foctopart-clicks.com%2Fclick%2Faltium%3Fmanufacturer%3DYageo%26mpn%3DCC0805JKX7R9BB224%26seller%3DDigi-Key%26sku%3D311-4217-1-ND%26country%3DUS%26channel%3DBOM%2520Report%26{URL.TEXT}Yageo{URL.TIP}Component|{URL}https:%2F%2Foctopart-clicks.com%2Fclick%2Faltium%3Fmanufacturer%3DYageo%26mpn%3DCC0805JKX7R9BB224%26seller%3DDigi-Key%26sku%3D311-4217-1-ND%26country%3DUS%26channel%3DBOM%2520Report%26ref%3Dman%26{URL.TEXT}CC0805JKX7R9BB224{URL.TIP}Manufacturer|Digi-Key|{URL}https:%2F%2Foctopart-clicks.com%2Fclick%2Faltium%3Fmanufacturer%3DYageo%26mpn%3DCC0805JKX7R9BB224%26seller%3DDigi-Key%26sku%3D311-4217-1-ND%26country%3DUS%26channel%3DBOM%2520Report%26ref%3Dsupplier%26{URL.TEXT}311-4217-1-ND{URL.TIP}Supplier
7|C39, C41|0.1UF 100V X7R 0805|Cap Ceramic 0.1uF 100V X7R 10% SMD 0805 125C Embossed T/R|CAP-0805-STD|CL21B104KCFNNNE|2|{URL}https:%2F%2Foctopart-clicks.com%2Fclick%2Faltium%3Fmanufacturer%3DSamsung%26mpn%3DCL21B104KCFNNNE%26seller%3DDigi-Key%26sku%3D1276-6840-1-ND%26country%3DUS%26channel%3DBOM%2520Report%26{URL.TEXT}Samsung{URL.TIP}Component|{URL}https:%2F%2Foctopart-clicks.com%2Fclick%2Faltium%3Fmanufacturer%3DSamsung%26mpn%3DCL21B104KCFNNNE%26seller%3DDigi-Key%26sku%3D1276-6840-1-ND%26country%3DUS%26channel%3DBOM%2520Report%26ref%3Dman%26{URL.TEXT}CL21B104KCFNNNE{URL.TIP}Manufacturer|Digi-Key|{URL}https:%2F%2Foctopart-clicks.com%2Fclick%2Faltium%3Fmanufacturer%3DSamsung%26mpn%3DCL21B104KCFNNNE%26seller%3DDigi-Key%26sku%3D1276-6840-1-ND%26country%3DUS%26channel%3DBOM%2520Report%26ref%3Dsupplier%26{URL.TEXT}1276-6840-1-ND{URL.TIP}Supplier
8|D1, D3, D4, D5, D6, D8, D9, D10, D12, D15, D16, D19, D22, D23, D24, D25, D26, D27, D28|PDZ6.2BGWJ||SOD123|PDZ6.2BGWJ|19|{URL}https:%2F%2Foctopart-clicks.com%2Fclick%2Faltium%3Fmanufacturer%3DNexperia%26mpn%3DPDZ6.2BGWJ%26seller%3DDigi-Key%26sku%3D1727-7771-1-ND%26country%3DUS%26channel%3DBOM%2520Report%26{URL.TEXT}Nexperia{URL.TIP}Component|{URL}https:%2F%2Foctopart-clicks.com%2Fclick%2Faltium%3Fmanufacturer%3DNexperia%26mpn%3DPDZ6.2BGWJ%26seller%3DDigi-Key%26sku%3D1727-7771-1-ND%26country%3DUS%26channel%3DBOM%2520Report%26ref%3Dman%26{URL.TEXT}PDZ6.2BGWJ{URL.TIP}Manufacturer|Digi-Key|{URL}https:%2F%2Foctopart-clicks.com%2Fclick%2Faltium%3Fmanufacturer%3DNexperia%26mpn%3DPDZ6.2BGWJ%26seller%3DDigi-Key%26sku%3D1727-7771-1-ND%26country%3DUS%26channel%3DBOM%2520Report%26ref%3Dsupplier%26{URL.TEXT}1727-7771-1-ND{URL.TIP}Supplier
9|D2, D7, D11, D13, D14, D17, D18, D20, D21|BAT54SLT1G|DIODE ARRAY SCHOTTKY 30V SOT23-3|SOT95P250X112-3N|BAT54SLT1G|9|{URL}https:%2F%2Foctopart-clicks.com%2Fclick%2Faltium%3Fmanufacturer%3DON%2520Semiconductor%26mpn%3DBAT54SLT1G%26seller%3DDigi-Key%26sku%3DBAT54SLT1GOSCT-ND%26country%3DUS%26channel%3DBOM%2520Report%26{URL.TEXT}ON%20Semiconductor{URL.TIP}Component|{URL}https:%2F%2Foctopart-clicks.com%2Fclick%2Faltium%3Fmanufacturer%3DON%2520Semiconductor%26mpn%3DBAT54SLT1G%26seller%3DDigi-Key%26sku%3DBAT54SLT1GOSCT-ND%26country%3DUS%26channel%3DBOM%2520Report%26ref%3Dman%26{URL.TEXT}BAT54SLT1G{URL.TIP}Manufacturer|Digi-Key|{URL}https:%2F%2Foctopart-clicks.com%2Fclick%2Faltium%3Fmanufacturer%3DON%2520Semiconductor%26mpn%3DBAT54SLT1G%26seller%3DDigi-Key%26sku%3DBAT54SLT1GOSCT-ND%26country%3DUS%26channel%3DBOM%2520Report%26ref%3Dsupplier%26{URL.TEXT}BAT54SLT1GOSCT-ND{URL.TIP}Supplier
10|F1|2A 125V SMD fuse|FUSE BOARD MNT 2A 125VAC/VDC SMD|BEL_SSQ2|SSQ2|1|{URL}https:%2F%2Foctopart-clicks.com%2Fclick%2Faltium%3Fmanufacturer%3DBel%26mpn%3DSSQ2%26seller%3DDigi-Key%26sku%3D507-1048-1-ND%26country%3DUS%26channel%3DBOM%2520Report%26{URL.TEXT}Bel{URL.TIP}Component|{URL}https:%2F%2Foctopart-clicks.com%2Fclick%2Faltium%3Fmanufacturer%3DBel%26mpn%3DSSQ2%26seller%3DDigi-Key%26sku%3D507-1048-1-ND%26country%3DUS%26channel%3DBOM%2520Report%26ref%3Dman%26{URL.TEXT}SSQ2{URL.TIP}Manufacturer|Digi-Key|{URL}https:%2F%2Foctopart-clicks.com%2Fclick%2Faltium%3Fmanufacturer%3DBel%26mpn%3DSSQ2%26seller%3DDigi-Key%26sku%3D507-1048-1-ND%26country%3DUS%26channel%3DBOM%2520Report%26ref%3Dsupplier%26{URL.TEXT}507-1048-1-ND{URL.TIP}Supplier
11|J2, J7|5600200630|2.0 W/B SMT ST A 6 EMBOSSED TP PKG|MOLEX_502352-0610|5600200630|2|{URL}https:%2F%2Foctopart-clicks.com%2Fclick%2Faltium%3Fmanufacturer%3DMolex%26mpn%3D502352-0610%26seller%3DDigi-Key%26sku%3D5023520610-ND%26country%3DUS%26channel%3DBOM%2520Report%26{URL.TEXT}Molex{URL.TIP}Component|{URL}https:%2F%2Foctopart-clicks.com%2Fclick%2Faltium%3Fmanufacturer%3DMolex%26mpn%3D502352-0610%26seller%3DDigi-Key%26sku%3D5023520610-ND%26country%3DUS%26channel%3DBOM%2520Report%26ref%3Dman%26{URL.TEXT}502352-0610{URL.TIP}Manufacturer|Digi-Key|{URL}https:%2F%2Foctopart-clicks.com%2Fclick%2Faltium%3Fmanufacturer%3DMolex%26mpn%3D502352-0610%26seller%3DDigi-Key%26sku%3D5023520610-ND%26country%3DUS%26channel%3DBOM%2520Report%26ref%3Dsupplier%26{URL.TEXT}5023520610-ND{URL.TIP}Supplier
12|J3, J5, J8|5600200230|2.0 W/B SMT ST A 2 EMBOSSED TP PKG|MOLEX_5023520210|5600200230|3|{URL}https:%2F%2Foctopart-clicks.com%2Fclick%2Faltium%3Fmanufacturer%3DMolex%26mpn%3D502352-0210%26seller%3DDigi-Key%26sku%3D5023520210-ND%26country%3DUS%26channel%3DBOM%2520Report%26{URL.TEXT}Molex{URL.TIP}Component|{URL}https:%2F%2Foctopart-clicks.com%2Fclick%2Faltium%3Fmanufacturer%3DMolex%26mpn%3D502352-0210%26seller%3DDigi-Key%26sku%3D5023520210-ND%26country%3DUS%26channel%3DBOM%2520Report%26ref%3Dman%26{URL.TEXT}502352-0210{URL.TIP}Manufacturer|Digi-Key|{URL}https:%2F%2Foctopart-clicks.com%2Fclick%2Faltium%3Fmanufacturer%3DMolex%26mpn%3D502352-0210%26seller%3DDigi-Key%26sku%3D5023520210-ND%26country%3DUS%26channel%3DBOM%2520Report%26ref%3Dsupplier%26{URL.TEXT}5023520210-ND{URL.TIP}Supplier
13|J4|5600201420|2.0 W/B SMT ST EMBOSSED TP PKG|MOLEX_502352-1410|5600201420|1|{URL}https:%2F%2Foctopart-clicks.com%2Fclick%2Faltium%3Fmanufacturer%3DMolex%26mpn%3D5023521410%26seller%3DDigi-Key%26sku%3D5023521410-ND%26country%3DUS%26channel%3DBOM%2520Report%26{URL.TEXT}Molex{URL.TIP}Component|{URL}https:%2F%2Foctopart-clicks.com%2Fclick%2Faltium%3Fmanufacturer%3DMolex%26mpn%3D5023521410%26seller%3DDigi-Key%26sku%3D5023521410-ND%26country%3DUS%26channel%3DBOM%2520Report%26ref%3Dman%26{URL.TEXT}5023521410{URL.TIP}Manufacturer|Digi-Key|{URL}https:%2F%2Foctopart-clicks.com%2Fclick%2Faltium%3Fmanufacturer%3DMolex%26mpn%3D5023521410%26seller%3DDigi-Key%26sku%3D5023521410-ND%26country%3DUS%26channel%3DBOM%2520Report%26ref%3Dsupplier%26{URL.TEXT}5023521410-ND{URL.TIP}Supplier
14|J6|5600201030|2.0 W/B SMT ST A 10 EMBOSSED TP PKG|MOLEX_502352-1010|5600201030|1|{URL}https:%2F%2Foctopart-clicks.com%2Fclick%2Faltium%3Fmanufacturer%3DMolex%26mpn%3D5023521010%26seller%3DDigi-Key%26sku%3D5023521010-ND%26country%3DUS%26channel%3DBOM%2520Report%26{URL.TEXT}Molex{URL.TIP}Component|{URL}https:%2F%2Foctopart-clicks.com%2Fclick%2Faltium%3Fmanufacturer%3DMolex%26mpn%3D5023521010%26seller%3DDigi-Key%26sku%3D5023521010-ND%26country%3DUS%26channel%3DBOM%2520Report%26ref%3Dman%26{URL.TEXT}5023521010{URL.TIP}Manufacturer|Digi-Key|{URL}https:%2F%2Foctopart-clicks.com%2Fclick%2Faltium%3Fmanufacturer%3DMolex%26mpn%3D5023521010%26seller%3DDigi-Key%26sku%3D5023521010-ND%26country%3DUS%26channel%3DBOM%2520Report%26ref%3Dsupplier%26{URL.TEXT}5023521010-ND{URL.TIP}Supplier
15|Q1, Q2, Q3, Q4, Q5, Q6, Q7, Q8, Q9, Q10, Q11, Q12, Q13, Q14, Q15, Q16, Q17, Q19|SSM3J334R,LF|MOSFET P CH 30V 4A SOT-23F|SOT95P250X112-3N|SSM3J334R,LF|18|{URL}https:%2F%2Foctopart-clicks.com%2Fclick%2Faltium%3Fmanufacturer%3DToshiba%26mpn%3DSSM3J334R%252CLF%26seller%3DDigi-Key%26sku%3DSSM3J334RLFCT-ND%26country%3DUS%26channel%3DBOM%2520Report%26{URL.TEXT}Toshiba{URL.TIP}Component|{URL}https:%2F%2Foctopart-clicks.com%2Fclick%2Faltium%3Fmanufacturer%3DToshiba%26mpn%3DSSM3J334R%252CLF%26seller%3DDigi-Key%26sku%3DSSM3J334RLFCT-ND%26country%3DUS%26channel%3DBOM%2520Report%26ref%3Dman%26{URL.TEXT}SSM3J334R,LF{URL.TIP}Manufacturer|Digi-Key|{URL}https:%2F%2Foctopart-clicks.com%2Fclick%2Faltium%3Fmanufacturer%3DToshiba%26mpn%3DSSM3J334R%252CLF%26seller%3DDigi-Key%26sku%3DSSM3J334RLFCT-ND%26country%3DUS%26channel%3DBOM%2520Report%26ref%3Dsupplier%26{URL.TEXT}SSM3J334RLFCT-ND{URL.TIP}Supplier
16|Q18|PMV213SN|Trans MOSFET N-CH 100V 1.9A 3-Pin TO-236AB T/R|SOT95P250X112-3N|PMV213SN,215|1|{URL}https:%2F%2Foctopart-clicks.com%2Fclick%2Faltium%3Fmanufacturer%3DNexperia%26mpn%3DPMV213SN%252C215%26seller%3DDigi-Key%26sku%3D1727-6294-1-ND%26country%3DUS%26channel%3DBOM%2520Report%26{URL.TEXT}Nexperia{URL.TIP}Component|{URL}https:%2F%2Foctopart-clicks.com%2Fclick%2Faltium%3Fmanufacturer%3DNexperia%26mpn%3DPMV213SN%252C215%26seller%3DDigi-Key%26sku%3D1727-6294-1-ND%26country%3DUS%26channel%3DBOM%2520Report%26ref%3Dman%26{URL.TEXT}PMV213SN,215{URL.TIP}Manufacturer|Digi-Key|{URL}https:%2F%2Foctopart-clicks.com%2Fclick%2Faltium%3Fmanufacturer%3DNexperia%26mpn%3DPMV213SN%252C215%26seller%3DDigi-Key%26sku%3D1727-6294-1-ND%26country%3DUS%26channel%3DBOM%2520Report%26ref%3Dsupplier%26{URL.TEXT}1727-6294-1-ND{URL.TIP}Supplier
17|R1, R2, R4, R16, R28, R30, R34, R37, R39, R42, R50, R57, R63, R70, R72, R75, R76, R77|3.3K 1/10W 0603|RES SMD 3.3K OHM 1% 1/10W 0603|res-0603-std|RC0603FR-073K3L|18|{URL}https:%2F%2Foctopart-clicks.com%2Fclick%2Faltium%3Fmanufacturer%3DYageo%2520Phycomp%26mpn%3DRC0603FR-073K3L%26seller%3DDigi-Key%26sku%3D311-3.30KHRDKR-ND%26country%3DUS%26channel%3DBOM%2520Report%26{URL.TEXT}Yageo%20Phycomp{URL.TIP}Component|{URL}https:%2F%2Foctopart-clicks.com%2Fclick%2Faltium%3Fmanufacturer%3DYageo%2520Phycomp%26mpn%3DRC0603FR-073K3L%26seller%3DDigi-Key%26sku%3D311-3.30KHRDKR-ND%26country%3DUS%26channel%3DBOM%2520Report%26ref%3Dman%26{URL.TEXT}RC0603FR-073K3L{URL.TIP}Manufacturer|Digi-Key|{URL}https:%2F%2Foctopart-clicks.com%2Fclick%2Faltium%3Fmanufacturer%3DYageo%2520Phycomp%26mpn%3DRC0603FR-073K3L%26seller%3DDigi-Key%26sku%3D311-3.30KHRDKR-ND%26country%3DUS%26channel%3DBOM%2520Report%26ref%3Dsupplier%26{URL.TEXT}311-3.30KHRDKR-ND{URL.TIP}Supplier
18|R3, R6, R17, R29, R31, R35, R38, R40, R44, R46, R52, R54, R56, R58, R60, R62, R65, R67, R69, R71, R73, R78, R80, R81, R82, R83, R92, R99, R142, R143|100 OHM 1/10W 0603|YAGEO (PHYCOMP) RC0603JR-07100RL SMD Chip Resistor, Thick Film, 100 ohm, 50 V, 0603 [1608 Metric], 100 mW,  5%, RC Series|RES-0603-STD|RC0603JR-07100RL|30|{URL}https:%2F%2Foctopart-clicks.com%2Fclick%2Faltium%3Fmanufacturer%3DYageo%26mpn%3DRC0603JR-07100RL%26seller%3DDigi-Key%26sku%3D311-100GRCT-ND%26country%3DUS%26channel%3DBOM%2520Report%26{URL.TEXT}Yageo{URL.TIP}Component|{URL}https:%2F%2Foctopart-clicks.com%2Fclick%2Faltium%3Fmanufacturer%3DYageo%26mpn%3DRC0603JR-07100RL%26seller%3DDigi-Key%26sku%3D311-100GRCT-ND%26country%3DUS%26channel%3DBOM%2520Report%26ref%3Dman%26{URL.TEXT}RC0603JR-07100RL{URL.TIP}Manufacturer|Digi-Key|{URL}https:%2F%2Foctopart-clicks.com%2Fclick%2Faltium%3Fmanufacturer%3DYageo%26mpn%3DRC0603JR-07100RL%26seller%3DDigi-Key%26sku%3D311-100GRCT-ND%26country%3DUS%26channel%3DBOM%2520Report%26ref%3Dsupplier%26{URL.TEXT}311-100GRCT-ND{URL.TIP}Supplier
19|R5, R18, R33, R36|49R9 1/10W 0603|YAGEO RC0603FR-0749R9L             RES, THICK FILM, 49R9, 1%, 0.1W, 0603|RES-0603-STD|RC0603FR-0749R9L|4|{URL}https:%2F%2Foctopart-clicks.com%2Fclick%2Faltium%3Fmanufacturer%3DYageo%26mpn%3DRC0603FR-0749R9L%26seller%3DDigi-Key%26sku%3D311-49.9HRDKR-ND%26country%3DUS%26channel%3DBOM%2520Report%26{URL.TEXT}Yageo{URL.TIP}Component|{URL}https:%2F%2Foctopart-clicks.com%2Fclick%2Faltium%3Fmanufacturer%3DYageo%26mpn%3DRC0603FR-0749R9L%26seller%3DDigi-Key%26sku%3D311-49.9HRDKR-ND%26country%3DUS%26channel%3DBOM%2520Report%26ref%3Dman%26{URL.TEXT}RC0603FR-0749R9L{URL.TIP}Manufacturer|Digi-Key|{URL}https:%2F%2Foctopart-clicks.com%2Fclick%2Faltium%3Fmanufacturer%3DYageo%26mpn%3DRC0603FR-0749R9L%26seller%3DDigi-Key%26sku%3D311-49.9HRDKR-ND%26country%3DUS%26channel%3DBOM%2520Report%26ref%3Dsupplier%26{URL.TEXT}311-49.9HRDKR-ND{URL.TIP}Supplier
20|R7, R8, R9, R10, R11, R12, R13, R14, R15, R19, R20, R21, R22, R23, R24, R25, R26, R27, R47, R49|1K 1/10W 0603|RC0603FR-071KL RES, THICK FILM, 1K, 1%, 0.1W, 0603|res-0603-std|RC0603FR-071KL|20|{URL}https:%2F%2Foctopart-clicks.com%2Fclick%2Faltium%3Fmanufacturer%3DYageo%26mpn%3DRC0603FR-071KL%26seller%3DDigi-Key%26sku%3D311-1.00KHRDKR-ND%26country%3DUS%26channel%3DBOM%2520Report%26{URL.TEXT}Yageo{URL.TIP}Component|{URL}https:%2F%2Foctopart-clicks.com%2Fclick%2Faltium%3Fmanufacturer%3DYageo%26mpn%3DRC0603FR-071KL%26seller%3DDigi-Key%26sku%3D311-1.00KHRDKR-ND%26country%3DUS%26channel%3DBOM%2520Report%26ref%3Dman%26{URL.TEXT}RC0603FR-071KL{URL.TIP}Manufacturer|Digi-Key|{URL}https:%2F%2Foctopart-clicks.com%2Fclick%2Faltium%3Fmanufacturer%3DYageo%26mpn%3DRC0603FR-071KL%26seller%3DDigi-Key%26sku%3D311-1.00KHRDKR-ND%26country%3DUS%26channel%3DBOM%2520Report%26ref%3Dsupplier%26{URL.TEXT}311-1.00KHRDKR-ND{URL.TIP}Supplier
21|R41, R43|10K 1/10W 0603|RES SMD 10K OHM 1% 1/10W 0603|RES-0603-STD|RT0603FRE0710KL|2|{URL}https:%2F%2Foctopart-clicks.com%2Fclick%2Faltium%3Fmanufacturer%3DYageo%26mpn%3DRT0603FRE0710KL%26seller%3DDigi-Key%26sku%3DYAG2321CT-ND%26country%3DUS%26channel%3DBOM%2520Report%26{URL.TEXT}Yageo{URL.TIP}Component|{URL}https:%2F%2Foctopart-clicks.com%2Fclick%2Faltium%3Fmanufacturer%3DYageo%26mpn%3DRT0603FRE0710KL%26seller%3DDigi-Key%26sku%3DYAG2321CT-ND%26country%3DUS%26channel%3DBOM%2520Report%26ref%3Dman%26{URL.TEXT}RT0603FRE0710KL{URL.TIP}Manufacturer|Digi-Key|{URL}https:%2F%2Foctopart-clicks.com%2Fclick%2Faltium%3Fmanufacturer%3DYageo%26mpn%3DRT0603FRE0710KL%26seller%3DDigi-Key%26sku%3DYAG2321CT-ND%26country%3DUS%26channel%3DBOM%2520Report%26ref%3Dsupplier%26{URL.TEXT}YAG2321CT-ND{URL.TIP}Supplier
22|R45, R53, R55, R59, R61, R66, R68|10K OHM 0.1% 1/10W 0603|Thin Film Resistors - SMD 10K ohm 0.1% 1/10W|RES-0603-STD|RT0603BRD0710KL|7|{URL}https:%2F%2Foctopart-clicks.com%2Fclick%2Faltium%3Fmanufacturer%3DYageo%26mpn%3DRT0603BRD0710KL%26seller%3DDigi-Key%26sku%3DRT0603BRD0710KL-ND%26country%3DUS%26channel%3DBOM%2520Report%26{URL.TEXT}Yageo{URL.TIP}Component|{URL}https:%2F%2Foctopart-clicks.com%2Fclick%2Faltium%3Fmanufacturer%3DYageo%26mpn%3DRT0603BRD0710KL%26seller%3DDigi-Key%26sku%3DRT0603BRD0710KL-ND%26country%3DUS%26channel%3DBOM%2520Report%26ref%3Dman%26{URL.TEXT}RT0603BRD0710KL{URL.TIP}Manufacturer|Digi-Key|{URL}https:%2F%2Foctopart-clicks.com%2Fclick%2Faltium%3Fmanufacturer%3DYageo%26mpn%3DRT0603BRD0710KL%26seller%3DDigi-Key%26sku%3DRT0603BRD0710KL-ND%26country%3DUS%26channel%3DBOM%2520Report%26ref%3Dsupplier%26{URL.TEXT}RT0603BRD0710KL-ND{URL.TIP}Supplier
23|R48, R64|0R 0603|YAGEO RC0603JR-070RL RES, THICK FILM, 0R, 0.1W, 0603|RES-0603-STD|RC0603JR-070RL|2|{URL}https:%2F%2Foctopart-clicks.com%2Fclick%2Faltium%3Fmanufacturer%3DVishay%26mpn%3DCRCW060310K0FKEA%26seller%3DDigi-Key%26sku%3D311-0.0GRDKR-ND%26country%3DUS%26channel%3DBOM%2520Report%26{URL.TEXT}Vishay{URL.TIP}Component|{URL}https:%2F%2Foctopart-clicks.com%2Fclick%2Faltium%3Fmanufacturer%3DVishay%26mpn%3DCRCW060310K0FKEA%26seller%3DDigi-Key%26sku%3D311-0.0GRDKR-ND%26country%3DUS%26channel%3DBOM%2520Report%26ref%3Dman%26{URL.TEXT}CRCW060310K0FKEA{URL.TIP}Manufacturer|Digi-Key|{URL}https:%2F%2Foctopart-clicks.com%2Fclick%2Faltium%3Fmanufacturer%3DVishay%26mpn%3DCRCW060310K0FKEA%26seller%3DDigi-Key%26sku%3D311-0.0GRDKR-ND%26country%3DUS%26channel%3DBOM%2520Report%26ref%3Dsupplier%26{URL.TEXT}311-0.0GRDKR-ND{URL.TIP}Supplier
24|R74|4K7 1/4W 0805|YAGEO (PHYCOMP)         RC0805FR-074K7L             SMD Chip Resistor, Thick Film, 4.7 kohm, 150 V, 0805 [2012 Metric], 250 mW,  1%|RES-0805-STD|RC0805FR-074K7L|1|{URL}https:%2F%2Foctopart-clicks.com%2Fclick%2Faltium%3Fmanufacturer%3DYageo%26mpn%3DRC0805FR-074K7L%26seller%3DDigi-Key%26sku%3D311-4.70KCRCT-ND%26country%3DUS%26channel%3DBOM%2520Report%26{URL.TEXT}Yageo{URL.TIP}Component|{URL}https:%2F%2Foctopart-clicks.com%2Fclick%2Faltium%3Fmanufacturer%3DYageo%26mpn%3DRC0805FR-074K7L%26seller%3DDigi-Key%26sku%3D311-4.70KCRCT-ND%26country%3DUS%26channel%3DBOM%2520Report%26ref%3Dman%26{URL.TEXT}RC0805FR-074K7L{URL.TIP}Manufacturer|Digi-Key|{URL}https:%2F%2Foctopart-clicks.com%2Fclick%2Faltium%3Fmanufacturer%3DYageo%26mpn%3DRC0805FR-074K7L%26seller%3DDigi-Key%26sku%3D311-4.70KCRCT-ND%26country%3DUS%26channel%3DBOM%2520Report%26ref%3Dsupplier%26{URL.TEXT}311-4.70KCRCT-ND{URL.TIP}Supplier
25|R79|1M 1/10W 0603|RES SMD 1M OHM 1% 1/10W 0603|RES-0603-STD|AC0603FR-071ML|1|{URL}https:%2F%2Foctopart-clicks.com%2Fclick%2Faltium%3Fmanufacturer%3DYageo%26mpn%3DAC0603FR-071ML%26seller%3DDigi-Key%26sku%3D311-1MLDCT-ND%26country%3DUS%26channel%3DBOM%2520Report%26{URL.TEXT}Yageo{URL.TIP}Component|{URL}https:%2F%2Foctopart-clicks.com%2Fclick%2Faltium%3Fmanufacturer%3DYageo%26mpn%3DAC0603FR-071ML%26seller%3DDigi-Key%26sku%3D311-1MLDCT-ND%26country%3DUS%26channel%3DBOM%2520Report%26ref%3Dman%26{URL.TEXT}AC0603FR-071ML{URL.TIP}Manufacturer|Digi-Key|{URL}https:%2F%2Foctopart-clicks.com%2Fclick%2Faltium%3Fmanufacturer%3DYageo%26mpn%3DAC0603FR-071ML%26seller%3DDigi-Key%26sku%3D311-1MLDCT-ND%26country%3DUS%26channel%3DBOM%2520Report%26ref%3Dsupplier%26{URL.TEXT}311-1MLDCT-ND{URL.TIP}Supplier
26|R84, R86, R87, R89, R90, R93, R95, R97, R98, R100, R101, R104, R105, R111, R112, R114, R115, R117, R118, R122, R123, R125, R126, R128, R129, R130, R131, R133, R134, R135, R136, R137, R138, R139, R140, R141|20 1W 2512|RES SMD 20 OHM 1% 1W 2512|RES-2512-STD|AC2512FK-0720RL|36|{URL}https:%2F%2Foctopart-clicks.com%2Fclick%2Faltium%3Fmanufacturer%3DYageo%26mpn%3DAC2512FK-0720RL%26seller%3DDigi-Key%26sku%3DYAG5557CT-ND%26country%3DUS%26channel%3DBOM%2520Report%26{URL.TEXT}Yageo{URL.TIP}Component|{URL}https:%2F%2Foctopart-clicks.com%2Fclick%2Faltium%3Fmanufacturer%3DYageo%26mpn%3DAC2512FK-0720RL%26seller%3DDigi-Key%26sku%3DYAG5557CT-ND%26country%3DUS%26channel%3DBOM%2520Report%26ref%3Dman%26{URL.TEXT}AC2512FK-0720RL{URL.TIP}Manufacturer|Digi-Key|{URL}https:%2F%2Foctopart-clicks.com%2Fclick%2Faltium%3Fmanufacturer%3DYageo%26mpn%3DAC2512FK-0720RL%26seller%3DDigi-Key%26sku%3DYAG5557CT-ND%26country%3DUS%26channel%3DBOM%2520Report%26ref%3Dsupplier%26{URL.TEXT}YAG5557CT-ND{URL.TIP}Supplier
27|R85, R102, R119, R127|0R 2512|Res Thick Film 2512 0 Ohm Molded SMD Automotive T/R|RES-2512-STD|RMCF2512ZT0R00|4|{URL}https:%2F%2Foctopart-clicks.com%2Fclick%2Faltium%3Fmanufacturer%3DStackpole%2520Electronics%26mpn%3DRMCF2512ZT0R00%26seller%3DDigi-Key%26sku%3DRMCF2512ZT0R00DKR-ND%26country%3DUS%26channel%3DBOM%2520Report%26{URL.TEXT}Stackpole%20Electronics{URL.TIP}Component|{URL}https:%2F%2Foctopart-clicks.com%2Fclick%2Faltium%3Fmanufacturer%3DStackpole%2520Electronics%26mpn%3DRMCF2512ZT0R00%26seller%3DDigi-Key%26sku%3DRMCF2512ZT0R00DKR-ND%26country%3DUS%26channel%3DBOM%2520Report%26ref%3Dman%26{URL.TEXT}RMCF2512ZT0R00{URL.TIP}Manufacturer|Digi-Key|{URL}https:%2F%2Foctopart-clicks.com%2Fclick%2Faltium%3Fmanufacturer%3DStackpole%2520Electronics%26mpn%3DRMCF2512ZT0R00%26seller%3DDigi-Key%26sku%3DRMCF2512ZT0R00DKR-ND%26country%3DUS%26channel%3DBOM%2520Report%26ref%3Dsupplier%26{URL.TEXT}RMCF2512ZT0R00DKR-ND{URL.TIP}Supplier
28|R132|100 OHM 1/4W 0805|YAGEO         RC0805JR-07100RL             RES, THICK FILM, 100R, 5%, 0.125W, 0805|RES-0805-STD|RC0805JR-07100RL|1|{URL}https:%2F%2Foctopart-clicks.com%2Fclick%2Faltium%3Fmanufacturer%3DYageo%26mpn%3DRC0805JR-07100RL%26seller%3DDigi-Key%26sku%3D311-100ARDKR-ND%26country%3DUS%26channel%3DBOM%2520Report%26{URL.TEXT}Yageo{URL.TIP}Component|{URL}https:%2F%2Foctopart-clicks.com%2Fclick%2Faltium%3Fmanufacturer%3DYageo%26mpn%3DRC0805JR-07100RL%26seller%3DDigi-Key%26sku%3D311-100ARDKR-ND%26country%3DUS%26channel%3DBOM%2520Report%26ref%3Dman%26{URL.TEXT}RC0805JR-07100RL{URL.TIP}Manufacturer|Digi-Key|{URL}https:%2F%2Foctopart-clicks.com%2Fclick%2Faltium%3Fmanufacturer%3DYageo%26mpn%3DRC0805JR-07100RL%26seller%3DDigi-Key%26sku%3D311-100ARDKR-ND%26country%3DUS%26channel%3DBOM%2520Report%26ref%3Dsupplier%26{URL.TEXT}311-100ARDKR-ND{URL.TIP}Supplier
29|R144, R145, R146|0 Ohm 1/4W 0805|RES, THICK FILM, 0R, 0.125W, 0805|RES-0805-STD|RC0805JR-070RL|3|{URL}https:%2F%2Foctopart-clicks.com%2Fclick%2Faltium%3Fmanufacturer%3DYageo%26mpn%3DRC0805JR-070RL%26seller%3DDigi-Key%26sku%3D311-0.0ARCT-ND%26country%3DUS%26channel%3DBOM%2520Report%26{URL.TEXT}Yageo{URL.TIP}Component|{URL}https:%2F%2Foctopart-clicks.com%2Fclick%2Faltium%3Fmanufacturer%3DYageo%26mpn%3DRC0805JR-070RL%26seller%3DDigi-Key%26sku%3D311-0.0ARCT-ND%26country%3DUS%26channel%3DBOM%2520Report%26ref%3Dman%26{URL.TEXT}RC0805JR-070RL{URL.TIP}Manufacturer|Digi-Key|{URL}https:%2F%2Foctopart-clicks.com%2Fclick%2Faltium%3Fmanufacturer%3DYageo%26mpn%3DRC0805JR-070RL%26seller%3DDigi-Key%26sku%3D311-0.0ARCT-ND%26country%3DUS%26channel%3DBOM%2520Report%26ref%3Dsupplier%26{URL.TEXT}311-0.0ARCT-ND{URL.TIP}Supplier
30|T1|DZT5551-13|TRANS NPN 160V 0.6A SOT-223|SOT230P700X180-4N|DZT5551-13|1|{URL}https:%2F%2Foctopart-clicks.com%2Fclick%2Faltium%3Fmanufacturer%3DDiodes%26mpn%3DDZT5551-13%26seller%3DDigi-Key%26sku%3DDZT5551DITR-ND%26country%3DUS%26channel%3DBOM%2520Report%26{URL.TEXT}Diodes{URL.TIP}Component|{URL}https:%2F%2Foctopart-clicks.com%2Fclick%2Faltium%3Fmanufacturer%3DDiodes%26mpn%3DDZT5551-13%26seller%3DDigi-Key%26sku%3DDZT5551DITR-ND%26country%3DUS%26channel%3DBOM%2520Report%26ref%3Dman%26{URL.TEXT}DZT5551-13{URL.TIP}Manufacturer|Digi-Key|{URL}https:%2F%2Foctopart-clicks.com%2Fclick%2Faltium%3Fmanufacturer%3DDiodes%26mpn%3DDZT5551-13%26seller%3DDigi-Key%26sku%3DDZT5551DITR-ND%26country%3DUS%26channel%3DBOM%2520Report%26ref%3Dsupplier%26{URL.TEXT}DZT5551DITR-ND{URL.TIP}Supplier
31|U1|LTC6813ILWE-1||TSQFP50P1210X1210X160_HS-65N|LTC6813ILWE-1#3ZZPBF|1|{URL}https:%2F%2Foctopart-clicks.com%2Fclick%2Faltium%3Fmanufacturer%3DAnalog%2520Devices%2520%252F%2520Linear%2520Technology%26mpn%3DLTC6813ILWE-1%25233ZZPBF%26seller%3DDigi-Key%26sku%3DLTC6813ILWE-1%25233ZZPBF-ND%26country%3DUS%26channel%3DBOM%2520Report%26{URL.TEXT}Analog%20Devices%20%2F%20Linear%20Technology{URL.TIP}Component|{URL}https:%2F%2Foctopart-clicks.com%2Fclick%2Faltium%3Fmanufacturer%3DAnalog%2520Devices%2520%252F%2520Linear%2520Technology%26mpn%3DLTC6813ILWE-1%25233ZZPBF%26seller%3DDigi-Key%26sku%3DLTC6813ILWE-1%25233ZZPBF-ND%26country%3DUS%26channel%3DBOM%2520Report%26ref%3Dman%26{URL.TEXT}LTC6813ILWE-1%233ZZPBF{URL.TIP}Manufacturer|Digi-Key|{URL}https:%2F%2Foctopart-clicks.com%2Fclick%2Faltium%3Fmanufacturer%3DAnalog%2520Devices%2520%252F%2520Linear%2520Technology%26mpn%3DLTC6813ILWE-1%25233ZZPBF%26seller%3DDigi-Key%26sku%3DLTC6813ILWE-1%25233ZZPBF-ND%26country%3DUS%26channel%3DBOM%2520Report%26ref%3Dsupplier%26{URL.TEXT}LTC6813ILWE-1%233ZZPBF-ND{URL.TIP}Supplier
32|U2|M24C02|IC EEPROM 2KBIT 400KHZ TSSOP8|TSOP65P640X120-8N|M24C02-FDW6TP|1|{URL}https:%2F%2Foctopart-clicks.com%2Fclick%2Faltium%3Fmanufacturer%3DSTMicroelectronics%26mpn%3DM24C02-FDW6TP%26seller%3DDigi-Key%26sku%3D497-15746-1-ND%26country%3DUS%26channel%3DBOM%2520Report%26{URL.TEXT}STMicroelectronics{URL.TIP}Component|{URL}https:%2F%2Foctopart-clicks.com%2Fclick%2Faltium%3Fmanufacturer%3DSTMicroelectronics%26mpn%3DM24C02-FDW6TP%26seller%3DDigi-Key%26sku%3D497-15746-1-ND%26country%3DUS%26channel%3DBOM%2520Report%26ref%3Dman%26{URL.TEXT}M24C02-FDW6TP{URL.TIP}Manufacturer|Digi-Key|{URL}https:%2F%2Foctopart-clicks.com%2Fclick%2Faltium%3Fmanufacturer%3DSTMicroelectronics%26mpn%3DM24C02-FDW6TP%26seller%3DDigi-Key%26sku%3D497-15746-1-ND%26country%3DUS%26channel%3DBOM%2520Report%26ref%3Dsupplier%26{URL.TEXT}497-15746-1-ND{URL.TIP}Supplier
33|U4|ACPL-217-560E|OPTOCOUPLER, TRANSISTOR O/P VDE|BROADCOM_ACPL-217|ACPL-217-560E|1|{URL}https:%2F%2Foctopart-clicks.com%2Fclick%2Faltium%3Fmanufacturer%3DBroadcom%2520Avago%26mpn%3DACPL-217-560E%26seller%3DDigi-Key%26sku%3D516-2895-2-ND%26country%3DUS%26channel%3DBOM%2520Report%26{URL.TEXT}Broadcom%20Avago{URL.TIP}Component|{URL}https:%2F%2Foctopart-clicks.com%2Fclick%2Faltium%3Fmanufacturer%3DBroadcom%2520Avago%26mpn%3DACPL-217-560E%26seller%3DDigi-Key%26sku%3D516-2895-2-ND%26country%3DUS%26channel%3DBOM%2520Report%26ref%3Dman%26{URL.TEXT}ACPL-217-560E{URL.TIP}Manufacturer|Digi-Key|{URL}https:%2F%2Foctopart-clicks.com%2Fclick%2Faltium%3Fmanufacturer%3DBroadcom%2520Avago%26mpn%3DACPL-217-560E%26seller%3DDigi-Key%26sku%3D516-2895-2-ND%26country%3DUS%26channel%3DBOM%2520Report%26ref%3Dsupplier%26{URL.TEXT}516-2895-2-ND{URL.TIP}Supplier
34|U5, U6, U7|BQ77PL157A|IC VOLT PROT LI-ION 16TSSOP|TSOP65P640X120-16N|BQ77PL157APWR-4225|3|{URL}https:%2F%2Foctopart-clicks.com%2Fclick%2Faltium%3Fmanufacturer%3DTexas%2520Instruments%26mpn%3DBQ77PL157APWR-4225%26seller%3DDigi-Key%26sku%3D296-27488-6-ND%26country%3DUS%26channel%3DBOM%2520Report%26{URL.TEXT}Texas%20Instruments{URL.TIP}Component|{URL}https:%2F%2Foctopart-clicks.com%2Fclick%2Faltium%3Fmanufacturer%3DTexas%2520Instruments%26mpn%3DBQ77PL157APWR-4225%26seller%3DDigi-Key%26sku%3D296-27488-6-ND%26country%3DUS%26channel%3DBOM%2520Report%26ref%3Dman%26{URL.TEXT}BQ77PL157APWR-4225{URL.TIP}Manufacturer|Digi-Key|{URL}https:%2F%2Foctopart-clicks.com%2Fclick%2Faltium%3Fmanufacturer%3DTexas%2520Instruments%26mpn%3DBQ77PL157APWR-4225%26seller%3DDigi-Key%26sku%3D296-27488-6-ND%26country%3DUS%26channel%3DBOM%2520Report%26ref%3Dsupplier%26{URL.TEXT}296-27488-6-ND{URL.TIP}Supplier
35|X1, X2|PULSE XFMR 4.3kV ISO :: 1kV WV|XFMR CMC MODULE AECQ BATT MNGT|PULSE_HM2103NL|HM2103NLT|2|{URL}https:%2F%2Foctopart-clicks.com%2Fclick%2Faltium%3Fmanufacturer%3DPulse%2520Electronics%26mpn%3DHM2103NLT%26seller%3DDigi-Key%26sku%3D1840-1035-6-ND%26country%3DUS%26channel%3DBOM%2520Report%26{URL.TEXT}Pulse%20Electronics{URL.TIP}Component|{URL}https:%2F%2Foctopart-clicks.com%2Fclick%2Faltium%3Fmanufacturer%3DPulse%2520Electronics%26mpn%3DHM2103NLT%26seller%3DDigi-Key%26sku%3D1840-1035-6-ND%26country%3DUS%26channel%3DBOM%2520Report%26ref%3Dman%26{URL.TEXT}HM2103NLT{URL.TIP}Manufacturer|Digi-Key|{URL}https:%2F%2Foctopart-clicks.com%2Fclick%2Faltium%3Fmanufacturer%3DPulse%2520Electronics%26mpn%3DHM2103NLT%26seller%3DDigi-Key%26sku%3D1840-1035-6-ND%26country%3DUS%26channel%3DBOM%2520Report%26ref%3Dsupplier%26{URL.TEXT}1840-1035-6-ND{URL.TIP}Supplier
